{
  "runtimeTarget": {
    "name": ".NETCoreApp,Version=v1.1",
    "signature": "f2fc0a844d5ed967ef9b7ea14a371b52e45e7ed9"
  },
  "compilationOptions": {},
  "targets": {
    ".NETCoreApp,Version=v1.1": {
      "MaterialOrder.Web.Contractors/1.0.0": {
        "dependencies": {
          "Microsoft.AspNetCore.Mvc": "1.1.1",
          "Deviax.QueryBuilder.Postgres": "0.2.2",
          "Microsoft.AspNetCore.Cryptography.KeyDerivation": "1.1.0",
          "Microsoft.AspNetCore.Server.Kestrel": "1.1.0",
          "Microsoft.Extensions.Configuration.EnvironmentVariables": "1.1.0",
          "Microsoft.Extensions.Configuration.FileExtensions": "1.1.0",
          "Microsoft.Extensions.Configuration.Json": "1.1.0",
          "Microsoft.Extensions.Logging": "1.1.0",
          "Microsoft.Extensions.Logging.Console": "1.1.0",
          "Microsoft.Extensions.Logging.Debug": "1.1.0",
          "Microsoft.Extensions.Options.ConfigurationExtensions": "1.1.0",
          "MimeKit": "1.10.1",
          "MaterialOrder.Web.Shared": "1.0.0",
          "MaterialOrder.Shared": "1.0.0"
        },
        "runtime": {
          "MaterialOrder.Web.Contractors.dll": {}
        }
      },
      "Microsoft.AspNetCore.Antiforgery/1.1.0": {
        "dependencies": {
          "Microsoft.AspNetCore.DataProtection": "1.1.0",
          "Microsoft.AspNetCore.Http.Abstractions": "1.1.0",
          "Microsoft.AspNetCore.Http.Extensions": "1.1.0",
          "Microsoft.AspNetCore.WebUtilities": "1.1.0",
          "Microsoft.Extensions.ObjectPool": "1.1.0"
        },
        "runtime": {
          "lib/netstandard1.3/Microsoft.AspNetCore.Antiforgery.dll": {}
        }
      },
      "Microsoft.AspNetCore.Authorization/1.1.0": {
        "dependencies": {
          "Microsoft.Extensions.Logging.Abstractions": "1.1.0",
          "Microsoft.Extensions.Options": "1.1.0"
        },
        "runtime": {
          "lib/netstandard1.3/Microsoft.AspNetCore.Authorization.dll": {}
        }
      },
      "Microsoft.AspNetCore.Cors/1.1.0": {
        "dependencies": {
          "Microsoft.AspNetCore.Http.Extensions": "1.1.0",
          "Microsoft.Extensions.Configuration.Abstractions": "1.1.0",
          "Microsoft.Extensions.DependencyInjection.Abstractions": "1.1.0",
          "Microsoft.Extensions.Options": "1.1.0"
        },
        "runtime": {
          "lib/netstandard1.3/Microsoft.AspNetCore.Cors.dll": {}
        }
      },
      "Microsoft.AspNetCore.Cryptography.Internal/1.1.0": {
        "runtime": {
          "lib/netstandard1.3/Microsoft.AspNetCore.Cryptography.Internal.dll": {}
        }
      },
      "Microsoft.AspNetCore.Cryptography.KeyDerivation/1.1.0": {
        "dependencies": {
          "Microsoft.AspNetCore.Cryptography.Internal": "1.1.0"
        },
        "runtime": {
          "lib/netstandard1.3/Microsoft.AspNetCore.Cryptography.KeyDerivation.dll": {}
        }
      },
      "Microsoft.AspNetCore.DataProtection/1.1.0": {
        "dependencies": {
          "Microsoft.AspNetCore.Cryptography.Internal": "1.1.0",
          "Microsoft.AspNetCore.DataProtection.Abstractions": "1.1.0",
          "Microsoft.AspNetCore.Hosting.Abstractions": "1.1.0",
          "Microsoft.Extensions.DependencyInjection.Abstractions": "1.1.0",
          "Microsoft.Extensions.Logging.Abstractions": "1.1.0",
          "Microsoft.Extensions.Options": "1.1.0"
        },
        "runtime": {
          "lib/netstandard1.3/Microsoft.AspNetCore.DataProtection.dll": {}
        }
      },
      "Microsoft.AspNetCore.DataProtection.Abstractions/1.1.0": {
        "runtime": {
          "lib/netstandard1.3/Microsoft.AspNetCore.DataProtection.Abstractions.dll": {}
        }
      },
      "Microsoft.AspNetCore.Diagnostics.Abstractions/1.1.0": {
        "runtime": {
          "lib/netstandard1.0/Microsoft.AspNetCore.Diagnostics.Abstractions.dll": {}
        }
      },
      "Microsoft.AspNetCore.Hosting/1.1.0": {
        "dependencies": {
          "Microsoft.AspNetCore.Hosting.Abstractions": "1.1.0",
          "Microsoft.AspNetCore.Hosting.Server.Abstractions": "1.1.0",
          "Microsoft.AspNetCore.Http": "1.1.0",
          "Microsoft.AspNetCore.Http.Extensions": "1.1.0",
          "Microsoft.Extensions.Configuration": "1.1.0",
          "Microsoft.Extensions.Configuration.EnvironmentVariables": "1.1.0",
          "Microsoft.Extensions.DependencyInjection": "1.1.0",
          "Microsoft.Extensions.FileProviders.Physical": "1.1.0",
          "Microsoft.Extensions.Logging": "1.1.0",
          "Microsoft.Extensions.Options": "1.1.0",
          "Microsoft.Extensions.PlatformAbstractions": "1.1.0",
          "System.Diagnostics.StackTrace": "4.3.0",
          "System.Reflection.Metadata": "1.4.2"
        },
        "runtime": {
          "lib/netstandard1.5/Microsoft.AspNetCore.Hosting.dll": {}
        }
      },
      "Microsoft.AspNetCore.Hosting.Abstractions/1.1.0": {
        "dependencies": {
          "Microsoft.AspNetCore.Hosting.Server.Abstractions": "1.1.0",
          "Microsoft.AspNetCore.Http.Abstractions": "1.1.0",
          "Microsoft.Extensions.Configuration.Abstractions": "1.1.0",
          "Microsoft.Extensions.DependencyInjection.Abstractions": "1.1.0",
          "Microsoft.Extensions.FileProviders.Abstractions": "1.1.0",
          "Microsoft.Extensions.Logging.Abstractions": "1.1.0"
        },
        "runtime": {
          "lib/netstandard1.3/Microsoft.AspNetCore.Hosting.Abstractions.dll": {}
        }
      },
      "Microsoft.AspNetCore.Hosting.Server.Abstractions/1.1.0": {
        "dependencies": {
          "Microsoft.AspNetCore.Http.Features": "1.1.0",
          "Microsoft.Extensions.Configuration.Abstractions": "1.1.0"
        },
        "runtime": {
          "lib/netstandard1.3/Microsoft.AspNetCore.Hosting.Server.Abstractions.dll": {}
        }
      },
      "Microsoft.AspNetCore.Html.Abstractions/1.1.0": {
        "dependencies": {
          "System.Text.Encodings.Web": "4.3.0"
        },
        "runtime": {
          "lib/netstandard1.0/Microsoft.AspNetCore.Html.Abstractions.dll": {}
        }
      },
      "Microsoft.AspNetCore.Http/1.1.0": {
        "dependencies": {
          "Microsoft.AspNetCore.Http.Abstractions": "1.1.0",
          "Microsoft.AspNetCore.WebUtilities": "1.1.0",
          "Microsoft.Extensions.ObjectPool": "1.1.0",
          "Microsoft.Extensions.Options": "1.1.0",
          "Microsoft.Net.Http.Headers": "1.1.0"
        },
        "runtime": {
          "lib/netstandard1.3/Microsoft.AspNetCore.Http.dll": {}
        }
      },
      "Microsoft.AspNetCore.Http.Abstractions/1.1.0": {
        "dependencies": {
          "Microsoft.AspNetCore.Http.Features": "1.1.0",
          "Microsoft.Extensions.Primitives": "1.1.0",
          "System.Text.Encodings.Web": "4.3.0"
        },
        "runtime": {
          "lib/netstandard1.3/Microsoft.AspNetCore.Http.Abstractions.dll": {}
        }
      },
      "Microsoft.AspNetCore.Http.Extensions/1.1.0": {
        "dependencies": {
          "Microsoft.AspNetCore.Http.Abstractions": "1.1.0",
          "Microsoft.Extensions.FileProviders.Abstractions": "1.1.0",
          "Microsoft.Net.Http.Headers": "1.1.0"
        },
        "runtime": {
          "lib/netstandard1.3/Microsoft.AspNetCore.Http.Extensions.dll": {}
        }
      },
      "Microsoft.AspNetCore.Http.Features/1.1.0": {
        "dependencies": {
          "Microsoft.Extensions.Primitives": "1.1.0",
          "System.Net.WebSockets": "4.3.0"
        },
        "runtime": {
          "lib/netstandard1.3/Microsoft.AspNetCore.Http.Features.dll": {}
        }
      },
      "Microsoft.AspNetCore.JsonPatch/1.1.0": {
        "dependencies": {
          "Newtonsoft.Json": "9.0.2-beta2"
        },
        "runtime": {
          "lib/netstandard1.3/Microsoft.AspNetCore.JsonPatch.dll": {}
        }
      },
      "Microsoft.AspNetCore.Localization/1.1.0": {
        "dependencies": {
          "Microsoft.AspNetCore.Http.Extensions": "1.1.0",
          "Microsoft.Extensions.Globalization.CultureInfoCache": "1.1.0",
          "Microsoft.Extensions.Localization.Abstractions": "1.1.0",
          "Microsoft.Extensions.Options": "1.1.0"
        },
        "runtime": {
          "lib/netstandard1.3/Microsoft.AspNetCore.Localization.dll": {}
        }
      },
      "Microsoft.AspNetCore.Mvc/1.1.1": {
        "dependencies": {
          "Microsoft.AspNetCore.Mvc.ApiExplorer": "1.1.1",
          "Microsoft.AspNetCore.Mvc.Cors": "1.1.1",
          "Microsoft.AspNetCore.Mvc.DataAnnotations": "1.1.1",
          "Microsoft.AspNetCore.Mvc.Formatters.Json": "1.1.1",
          "Microsoft.AspNetCore.Mvc.Localization": "1.1.1",
          "Microsoft.AspNetCore.Mvc.Razor": "1.1.1",
          "Microsoft.AspNetCore.Mvc.TagHelpers": "1.1.1",
          "Microsoft.AspNetCore.Mvc.ViewFeatures": "1.1.1",
          "Microsoft.Extensions.Caching.Memory": "1.1.0",
          "Microsoft.Extensions.DependencyInjection": "1.1.0"
        },
        "runtime": {
          "lib/netstandard1.6/Microsoft.AspNetCore.Mvc.dll": {}
        }
      },
      "Microsoft.AspNetCore.Mvc.Abstractions/1.1.1": {
        "dependencies": {
          "Microsoft.AspNetCore.Routing.Abstractions": "1.1.0",
          "Microsoft.Net.Http.Headers": "1.1.0",
          "System.ComponentModel.TypeConverter": "4.3.0"
        },
        "runtime": {
          "lib/netstandard1.3/Microsoft.AspNetCore.Mvc.Abstractions.dll": {}
        }
      },
      "Microsoft.AspNetCore.Mvc.ApiExplorer/1.1.1": {
        "dependencies": {
          "Microsoft.AspNetCore.Mvc.Core": "1.1.1"
        },
        "runtime": {
          "lib/netstandard1.6/Microsoft.AspNetCore.Mvc.ApiExplorer.dll": {}
        }
      },
      "Microsoft.AspNetCore.Mvc.Core/1.1.1": {
        "dependencies": {
          "Microsoft.AspNetCore.Authorization": "1.1.0",
          "Microsoft.AspNetCore.Hosting.Abstractions": "1.1.0",
          "Microsoft.AspNetCore.Http": "1.1.0",
          "Microsoft.AspNetCore.Mvc.Abstractions": "1.1.1",
          "Microsoft.AspNetCore.ResponseCaching.Abstractions": "1.1.0",
          "Microsoft.AspNetCore.Routing": "1.1.0",
          "Microsoft.Extensions.DependencyModel": "1.1.0",
          "Microsoft.Extensions.FileProviders.Abstractions": "1.1.0",
          "Microsoft.Extensions.Logging.Abstractions": "1.1.0",
          "Microsoft.Extensions.PlatformAbstractions": "1.1.0"
        },
        "runtime": {
          "lib/netstandard1.6/Microsoft.AspNetCore.Mvc.Core.dll": {}
        }
      },
      "Microsoft.AspNetCore.Mvc.Cors/1.1.1": {
        "dependencies": {
          "Microsoft.AspNetCore.Cors": "1.1.0",
          "Microsoft.AspNetCore.Mvc.Core": "1.1.1"
        },
        "runtime": {
          "lib/netstandard1.6/Microsoft.AspNetCore.Mvc.Cors.dll": {}
        }
      },
      "Microsoft.AspNetCore.Mvc.DataAnnotations/1.1.1": {
        "dependencies": {
          "Microsoft.AspNetCore.Mvc.Core": "1.1.1",
          "Microsoft.Extensions.Localization": "1.1.0"
        },
        "runtime": {
          "lib/netstandard1.6/Microsoft.AspNetCore.Mvc.DataAnnotations.dll": {}
        }
      },
      "Microsoft.AspNetCore.Mvc.Formatters.Json/1.1.1": {
        "dependencies": {
          "Microsoft.AspNetCore.JsonPatch": "1.1.0",
          "Microsoft.AspNetCore.Mvc.Core": "1.1.1"
        },
        "runtime": {
          "lib/netstandard1.6/Microsoft.AspNetCore.Mvc.Formatters.Json.dll": {}
        }
      },
      "Microsoft.AspNetCore.Mvc.Localization/1.1.1": {
        "dependencies": {
          "Microsoft.AspNetCore.Localization": "1.1.0",
          "Microsoft.AspNetCore.Mvc.Razor": "1.1.1",
          "Microsoft.Extensions.DependencyInjection": "1.1.0",
          "Microsoft.Extensions.Localization": "1.1.0"
        },
        "runtime": {
          "lib/netstandard1.6/Microsoft.AspNetCore.Mvc.Localization.dll": {}
        }
      },
      "Microsoft.AspNetCore.Mvc.Razor/1.1.1": {
        "dependencies": {
          "Microsoft.AspNetCore.Mvc.Razor.Host": "1.1.1",
          "Microsoft.AspNetCore.Mvc.ViewFeatures": "1.1.1",
          "Microsoft.Extensions.FileProviders.Composite": "1.1.0"
        },
        "runtime": {
          "lib/netstandard1.6/Microsoft.AspNetCore.Mvc.Razor.dll": {}
        }
      },
      "Microsoft.AspNetCore.Mvc.Razor.Host/1.1.1": {
        "dependencies": {
          "Microsoft.AspNetCore.Razor.Runtime": "1.1.0",
          "Microsoft.Extensions.Caching.Memory": "1.1.0",
          "Microsoft.Extensions.FileProviders.Physical": "1.1.0",
          "System.ComponentModel.TypeConverter": "4.3.0"
        },
        "runtime": {
          "lib/netstandard1.6/Microsoft.AspNetCore.Mvc.Razor.Host.dll": {}
        }
      },
      "Microsoft.AspNetCore.Mvc.TagHelpers/1.1.1": {
        "dependencies": {
          "Microsoft.AspNetCore.Mvc.Razor": "1.1.1",
          "Microsoft.AspNetCore.Routing.Abstractions": "1.1.0",
          "Microsoft.Extensions.Caching.Memory": "1.1.0",
          "Microsoft.Extensions.FileSystemGlobbing": "1.1.0",
          "Microsoft.Extensions.Primitives": "1.1.0"
        },
        "runtime": {
          "lib/netstandard1.6/Microsoft.AspNetCore.Mvc.TagHelpers.dll": {}
        }
      },
      "Microsoft.AspNetCore.Mvc.ViewFeatures/1.1.1": {
        "dependencies": {
          "Microsoft.AspNetCore.Antiforgery": "1.1.0",
          "Microsoft.AspNetCore.Diagnostics.Abstractions": "1.1.0",
          "Microsoft.AspNetCore.Html.Abstractions": "1.1.0",
          "Microsoft.AspNetCore.Mvc.Core": "1.1.1",
          "Microsoft.AspNetCore.Mvc.DataAnnotations": "1.1.1",
          "Microsoft.AspNetCore.Mvc.Formatters.Json": "1.1.1",
          "Microsoft.Extensions.WebEncoders": "1.1.0",
          "Newtonsoft.Json": "9.0.2-beta2",
          "System.Runtime.Serialization.Primitives": "4.3.0"
        },
        "runtime": {
          "lib/netstandard1.6/Microsoft.AspNetCore.Mvc.ViewFeatures.dll": {}
        }
      },
      "Microsoft.AspNetCore.Razor/1.1.0": {
        "runtime": {
          "lib/netstandard1.3/Microsoft.AspNetCore.Razor.dll": {}
        }
      },
      "Microsoft.AspNetCore.Razor.Runtime/1.1.0": {
        "dependencies": {
          "Microsoft.AspNetCore.Html.Abstractions": "1.1.0",
          "Microsoft.AspNetCore.Razor": "1.1.0"
        },
        "runtime": {
          "lib/netstandard1.5/Microsoft.AspNetCore.Razor.Runtime.dll": {}
        }
      },
      "Microsoft.AspNetCore.ResponseCaching.Abstractions/1.1.0": {
        "dependencies": {
          "Microsoft.Extensions.Primitives": "1.1.0"
        },
        "runtime": {
          "lib/netstandard1.3/Microsoft.AspNetCore.ResponseCaching.Abstractions.dll": {}
        }
      },
      "Microsoft.AspNetCore.Routing/1.1.0": {
        "dependencies": {
          "Microsoft.AspNetCore.Http.Extensions": "1.1.0",
          "Microsoft.AspNetCore.Routing.Abstractions": "1.1.0",
          "Microsoft.Extensions.Logging.Abstractions": "1.1.0",
          "Microsoft.Extensions.ObjectPool": "1.1.0",
          "Microsoft.Extensions.Options": "1.1.0"
        },
        "runtime": {
          "lib/netstandard1.3/Microsoft.AspNetCore.Routing.dll": {}
        }
      },
      "Microsoft.AspNetCore.Routing.Abstractions/1.1.0": {
        "dependencies": {
          "Microsoft.AspNetCore.Http.Abstractions": "1.1.0"
        },
        "runtime": {
          "lib/netstandard1.3/Microsoft.AspNetCore.Routing.Abstractions.dll": {}
        }
      },
      "Microsoft.AspNetCore.Server.Kestrel/1.1.0": {
        "dependencies": {
          "Microsoft.AspNetCore.Hosting": "1.1.0",
          "Microsoft.Extensions.Logging.Abstractions": "1.1.0"
        },
        "runtime": {
          "lib/netstandard1.3/Microsoft.AspNetCore.Server.Kestrel.dll": {}
        }
      },
      "Microsoft.AspNetCore.WebUtilities/1.1.0": {
        "dependencies": {
          "Microsoft.Extensions.Primitives": "1.1.0",
          "Microsoft.Net.Http.Headers": "1.1.0",
          "System.Text.Encodings.Web": "4.3.0"
        },
        "runtime": {
          "lib/netstandard1.3/Microsoft.AspNetCore.WebUtilities.dll": {}
        }
      },
      "Microsoft.DotNet.PlatformAbstractions/1.1.0": {
        "runtime": {
          "lib/netstandard1.3/Microsoft.DotNet.PlatformAbstractions.dll": {}
        }
      },
      "Microsoft.Extensions.Caching.Abstractions/1.1.0": {
        "dependencies": {
          "Microsoft.Extensions.Primitives": "1.1.0"
        },
        "runtime": {
          "lib/netstandard1.0/Microsoft.Extensions.Caching.Abstractions.dll": {}
        }
      },
      "Microsoft.Extensions.Caching.Memory/1.1.0": {
        "dependencies": {
          "Microsoft.Extensions.Caching.Abstractions": "1.1.0",
          "Microsoft.Extensions.DependencyInjection.Abstractions": "1.1.0",
          "Microsoft.Extensions.Options": "1.1.0"
        },
        "runtime": {
          "lib/netstandard1.3/Microsoft.Extensions.Caching.Memory.dll": {}
        }
      },
      "Microsoft.Extensions.Configuration/1.1.0": {
        "dependencies": {
          "Microsoft.Extensions.Configuration.Abstractions": "1.1.0"
        },
        "runtime": {
          "lib/netstandard1.1/Microsoft.Extensions.Configuration.dll": {}
        }
      },
      "Microsoft.Extensions.Configuration.Abstractions/1.1.0": {
        "dependencies": {
          "Microsoft.Extensions.Primitives": "1.1.0"
        },
        "runtime": {
          "lib/netstandard1.0/Microsoft.Extensions.Configuration.Abstractions.dll": {}
        }
      },
      "Microsoft.Extensions.Configuration.Binder/1.1.0": {
        "dependencies": {
          "Microsoft.Extensions.Configuration": "1.1.0",
          "System.ComponentModel.TypeConverter": "4.3.0"
        },
        "runtime": {
          "lib/netstandard1.1/Microsoft.Extensions.Configuration.Binder.dll": {}
        }
      },
      "Microsoft.Extensions.Configuration.EnvironmentVariables/1.1.0": {
        "dependencies": {
          "Microsoft.Extensions.Configuration": "1.1.0"
        },
        "runtime": {
          "lib/netstandard1.3/Microsoft.Extensions.Configuration.EnvironmentVariables.dll": {}
        }
      },
      "Microsoft.Extensions.Configuration.FileExtensions/1.1.0": {
        "dependencies": {
          "Microsoft.Extensions.Configuration": "1.1.0",
          "Microsoft.Extensions.FileProviders.Physical": "1.1.0"
        },
        "runtime": {
          "lib/netstandard1.3/Microsoft.Extensions.Configuration.FileExtensions.dll": {}
        }
      },
      "Microsoft.Extensions.Configuration.Json/1.1.0": {
        "dependencies": {
          "Microsoft.Extensions.Configuration": "1.1.0",
          "Microsoft.Extensions.Configuration.FileExtensions": "1.1.0",
          "Newtonsoft.Json": "9.0.2-beta2",
          "System.Runtime.Serialization.Primitives": "4.3.0"
        },
        "runtime": {
          "lib/netstandard1.3/Microsoft.Extensions.Configuration.Json.dll": {}
        }
      },
      "Microsoft.Extensions.DependencyInjection/1.1.0": {
        "dependencies": {
          "Microsoft.Extensions.DependencyInjection.Abstractions": "1.1.0"
        },
        "runtime": {
          "lib/netstandard1.1/Microsoft.Extensions.DependencyInjection.dll": {}
        }
      },
      "Microsoft.Extensions.DependencyInjection.Abstractions/1.1.0": {
        "runtime": {
          "lib/netstandard1.0/Microsoft.Extensions.DependencyInjection.Abstractions.dll": {}
        }
      },
      "Microsoft.Extensions.DependencyModel/1.1.0": {
        "dependencies": {
          "Microsoft.DotNet.PlatformAbstractions": "1.1.0",
          "Newtonsoft.Json": "9.0.2-beta2"
        },
        "runtime": {
          "lib/netstandard1.6/Microsoft.Extensions.DependencyModel.dll": {}
        }
      },
      "Microsoft.Extensions.FileProviders.Abstractions/1.1.0": {
        "dependencies": {
          "Microsoft.Extensions.Primitives": "1.1.0"
        },
        "runtime": {
          "lib/netstandard1.0/Microsoft.Extensions.FileProviders.Abstractions.dll": {}
        }
      },
      "Microsoft.Extensions.FileProviders.Composite/1.1.0": {
        "dependencies": {
          "Microsoft.Extensions.FileProviders.Abstractions": "1.1.0"
        },
        "runtime": {
          "lib/netstandard1.0/Microsoft.Extensions.FileProviders.Composite.dll": {}
        }
      },
      "Microsoft.Extensions.FileProviders.Physical/1.1.0": {
        "dependencies": {
          "Microsoft.Extensions.FileProviders.Abstractions": "1.1.0",
          "Microsoft.Extensions.FileSystemGlobbing": "1.1.0"
        },
        "runtime": {
          "lib/netstandard1.3/Microsoft.Extensions.FileProviders.Physical.dll": {}
        }
      },
      "Microsoft.Extensions.FileSystemGlobbing/1.1.0": {
        "runtime": {
          "lib/netstandard1.3/Microsoft.Extensions.FileSystemGlobbing.dll": {}
        }
      },
      "Microsoft.Extensions.Globalization.CultureInfoCache/1.1.0": {
        "runtime": {
          "lib/netstandard1.1/Microsoft.Extensions.Globalization.CultureInfoCache.dll": {}
        }
      },
      "Microsoft.Extensions.Localization/1.1.0": {
        "dependencies": {
          "Microsoft.AspNetCore.Hosting.Abstractions": "1.1.0",
          "Microsoft.Extensions.DependencyInjection.Abstractions": "1.1.0",
          "Microsoft.Extensions.Localization.Abstractions": "1.1.0",
          "Microsoft.Extensions.Options": "1.1.0"
        },
        "runtime": {
          "lib/netstandard1.3/Microsoft.Extensions.Localization.dll": {}
        }
      },
      "Microsoft.Extensions.Localization.Abstractions/1.1.0": {
        "runtime": {
          "lib/netstandard1.0/Microsoft.Extensions.Localization.Abstractions.dll": {}
        }
      },
      "Microsoft.Extensions.Logging/1.1.0": {
        "dependencies": {
          "Microsoft.Extensions.DependencyInjection.Abstractions": "1.1.0",
          "Microsoft.Extensions.Logging.Abstractions": "1.1.0"
        },
        "runtime": {
          "lib/netstandard1.1/Microsoft.Extensions.Logging.dll": {}
        }
      },
      "Microsoft.Extensions.Logging.Abstractions/1.1.0": {
        "runtime": {
          "lib/netstandard1.1/Microsoft.Extensions.Logging.Abstractions.dll": {}
        }
      },
      "Microsoft.Extensions.Logging.Console/1.1.0": {
        "dependencies": {
          "Microsoft.Extensions.Configuration.Abstractions": "1.1.0",
          "Microsoft.Extensions.Logging.Abstractions": "1.1.0"
        },
        "runtime": {
          "lib/netstandard1.3/Microsoft.Extensions.Logging.Console.dll": {}
        }
      },
      "Microsoft.Extensions.Logging.Debug/1.1.0": {
        "dependencies": {
          "Microsoft.Extensions.Logging.Abstractions": "1.1.0"
        },
        "runtime": {
          "lib/netstandard1.3/Microsoft.Extensions.Logging.Debug.dll": {}
        }
      },
      "Microsoft.Extensions.ObjectPool/1.1.0": {
        "runtime": {
          "lib/netstandard1.3/Microsoft.Extensions.ObjectPool.dll": {}
        }
      },
      "Microsoft.Extensions.Options/1.1.0": {
        "dependencies": {
          "Microsoft.Extensions.DependencyInjection.Abstractions": "1.1.0",
          "Microsoft.Extensions.Primitives": "1.1.0"
        },
        "runtime": {
          "lib/netstandard1.0/Microsoft.Extensions.Options.dll": {}
        }
      },
      "Microsoft.Extensions.Options.ConfigurationExtensions/1.1.0": {
        "dependencies": {
          "Microsoft.Extensions.Configuration.Abstractions": "1.1.0",
          "Microsoft.Extensions.Configuration.Binder": "1.1.0",
          "Microsoft.Extensions.DependencyInjection.Abstractions": "1.1.0",
          "Microsoft.Extensions.Options": "1.1.0"
        },
        "runtime": {
          "lib/netstandard1.1/Microsoft.Extensions.Options.ConfigurationExtensions.dll": {}
        }
      },
      "Microsoft.Extensions.PlatformAbstractions/1.1.0": {
        "runtime": {
          "lib/netstandard1.3/Microsoft.Extensions.PlatformAbstractions.dll": {}
        }
      },
      "Microsoft.Extensions.Primitives/1.1.0": {
        "dependencies": {
          "System.Runtime.CompilerServices.Unsafe": "4.3.0"
        },
        "runtime": {
          "lib/netstandard1.0/Microsoft.Extensions.Primitives.dll": {}
        }
      },
      "Microsoft.Extensions.WebEncoders/1.1.0": {
        "dependencies": {
          "Microsoft.Extensions.DependencyInjection.Abstractions": "1.1.0",
          "Microsoft.Extensions.Options": "1.1.0",
          "System.Text.Encodings.Web": "4.3.0"
        },
        "runtime": {
          "lib/netstandard1.0/Microsoft.Extensions.WebEncoders.dll": {}
        }
      },
      "Microsoft.Net.Http.Headers/1.1.0": {
        "dependencies": {
          "Microsoft.Extensions.Primitives": "1.1.0",
          "System.Diagnostics.Contracts": "4.3.0"
        },
        "runtime": {
          "lib/netstandard1.1/Microsoft.Net.Http.Headers.dll": {}
        }
      },
      "MimeKit/1.10.1": {
        "dependencies": {
          "Portable.BouncyCastle": "1.8.1.1",
          "System.Data.Common": "4.3.0",
          "System.Net.NetworkInformation": "4.3.0",
          "System.Runtime.Serialization.Primitives": "4.3.0"
        },
        "runtime": {
          "lib/netstandard1.3/MimeKit.dll": {}
        }
      },
      "Newtonsoft.Json/9.0.2-beta2": {
        "dependencies": {
          "System.ComponentModel.TypeConverter": "4.3.0",
          "System.Runtime.Serialization.Primitives": "4.3.0"
        },
        "runtime": {
          "lib/netstandard1.1/Newtonsoft.Json.dll": {}
        }
      },
      "Npgsql/3.2.1": {
        "dependencies": {
          "Microsoft.Extensions.Logging": "1.1.0",
          "System.Collections.Specialized": "4.3.0",
          "System.ComponentModel.TypeConverter": "4.3.0",
          "System.Data.Common": "4.3.0",
          "System.Net.NetworkInformation": "4.3.0"
        },
        "runtime": {
          "lib/netstandard1.3/Npgsql.dll": {}
        }
      },
      "Portable.BouncyCastle/1.8.1.1": {
        "runtime": {
          "lib/netstandard1.3/crypto.dll": {}
        }
      },
      "StackExchange.Redis/1.2.0": {
        "dependencies": {
          "System.Collections.NonGeneric": "4.3.0"
        },
        "runtime": {
          "lib/netstandard1.5/StackExchange.Redis.dll": {}
        }
      },
      "System.Collections.Immutable/1.3.1": {
        "runtime": {
          "lib/netstandard1.0/System.Collections.Immutable.dll": {}
        }
      },
      "System.Collections.NonGeneric/4.3.0": {
        "runtime": {
          "lib/netstandard1.3/System.Collections.NonGeneric.dll": {}
        }
      },
      "System.Collections.Specialized/4.3.0": {
        "dependencies": {
          "System.Collections.NonGeneric": "4.3.0"
        },
        "runtime": {
          "lib/netstandard1.3/System.Collections.Specialized.dll": {}
        }
      },
      "System.ComponentModel.Primitives/4.3.0": {
        "runtime": {
          "lib/netstandard1.0/System.ComponentModel.Primitives.dll": {}
        }
      },
      "System.ComponentModel.TypeConverter/4.3.0": {
        "dependencies": {
          "System.Collections.NonGeneric": "4.3.0",
          "System.Collections.Specialized": "4.3.0",
          "System.ComponentModel.Primitives": "4.3.0"
        },
        "runtime": {
          "lib/netstandard1.5/System.ComponentModel.TypeConverter.dll": {}
        }
      },
      "System.Data.Common/4.3.0": {
        "runtime": {
          "lib/netstandard1.2/System.Data.Common.dll": {}
        }
      },
      "System.Diagnostics.Contracts/4.3.0": {
        "runtime": {
          "lib/netstandard1.0/System.Diagnostics.Contracts.dll": {}
        }
      },
      "System.Diagnostics.StackTrace/4.3.0": {
        "dependencies": {
          "System.Reflection.Metadata": "1.4.2"
        },
        "runtime": {
          "lib/netstandard1.3/System.Diagnostics.StackTrace.dll": {}
        }
      },
      "System.Net.NetworkInformation/4.3.0": {
        "runtimeTargets": {
          "runtimes/linux/lib/netstandard1.3/System.Net.NetworkInformation.dll": {
            "rid": "linux",
            "assetType": "runtime"
          },
          "runtimes/osx/lib/netstandard1.3/System.Net.NetworkInformation.dll": {
            "rid": "osx",
            "assetType": "runtime"
          },
          "runtimes/win/lib/netstandard1.3/System.Net.NetworkInformation.dll": {
            "rid": "win",
            "assetType": "runtime"
          }
        }
      },
      "System.Net.WebSockets/4.3.0": {
        "runtime": {
          "lib/netstandard1.3/System.Net.WebSockets.dll": {}
        }
      },
      "System.Reflection.Context/4.3.0": {
        "runtime": {
          "lib/netstandard1.1/System.Reflection.Context.dll": {}
        }
      },
      "System.Reflection.Metadata/1.4.2": {
        "dependencies": {
          "System.Collections.Immutable": "1.3.1"
        },
        "runtime": {
          "lib/netstandard1.1/System.Reflection.Metadata.dll": {}
        }
      },
      "System.Runtime.CompilerServices.Unsafe/4.3.0": {
        "runtime": {
          "lib/netstandard1.0/System.Runtime.CompilerServices.Unsafe.dll": {}
        }
      },
      "System.Runtime.Serialization.Primitives/4.3.0": {
        "runtime": {
          "lib/netstandard1.3/System.Runtime.Serialization.Primitives.dll": {}
        }
      },
      "System.Text.Encodings.Web/4.3.0": {
        "runtime": {
          "lib/netstandard1.0/System.Text.Encodings.Web.dll": {}
        }
      },
      "Deviax.QueryBuilder.Postgres/0.2.2": {
        "dependencies": {
          "Npgsql": "3.2.1",
          "System.Data.Common": "4.3.0",
          "System.Diagnostics.Contracts": "4.3.0",
          "System.Reflection.Context": "4.3.0",
          "System.Reflection.Metadata": "1.4.2"
        },
        "runtime": {
          "Deviax.QueryBuilder.Postgres.dll": {}
        }
      },
      "MaterialOrder.Shared/1.0.0": {
        "dependencies": {
          "Deviax.QueryBuilder.Postgres": "0.2.2",
          "Microsoft.AspNetCore.Mvc": "1.1.1",
          "Microsoft.Extensions.Options.ConfigurationExtensions": "1.1.0",
          "MimeKit": "1.10.1",
          "Newtonsoft.Json": "9.0.2-beta2",
          "Npgsql": "3.2.1",
          "StackExchange.Redis": "1.2.0"
        },
        "runtime": {
          "MaterialOrder.Shared.dll": {}
        }
      },
      "MaterialOrder.Web.Shared/1.0.0": {
        "dependencies": {
          "Microsoft.AspNetCore.Mvc": "1.1.1",
          "MaterialOrder.Shared": "1.0.0",
          "Deviax.QueryBuilder.Postgres": "0.2.2",
          "Microsoft.AspNetCore.Cryptography.KeyDerivation": "1.1.0",
          "Microsoft.AspNetCore.Server.Kestrel": "1.1.0",
          "Microsoft.Extensions.Configuration.EnvironmentVariables": "1.1.0",
          "Microsoft.Extensions.Configuration.FileExtensions": "1.1.0",
          "Microsoft.Extensions.Configuration.Json": "1.1.0",
          "Microsoft.Extensions.Logging": "1.1.0",
          "Microsoft.Extensions.Logging.Console": "1.1.0",
          "Microsoft.Extensions.Logging.Debug": "1.1.0",
          "Microsoft.Extensions.Options.ConfigurationExtensions": "1.1.0",
          "MimeKit": "1.10.1"
        },
        "runtime": {
          "MaterialOrder.Web.Shared.dll": {}
        }
      }
    }
  },
  "libraries": {
    "MaterialOrder.Web.Contractors/1.0.0": {
      "type": "project",
      "serviceable": false,
      "sha512": ""
    },
    "Microsoft.AspNetCore.Antiforgery/1.1.0": {
      "type": "package",
      "serviceable": true,
      "sha512": "sha512-6HM8/rsSGAQybSZ9sNP2f0Xqh507OJu3kvqRksXeHUXV72yuwFpnauGkfIMSt+gwPSvyk8qGqZB2m4sKCUomhA=="
    },
    "Microsoft.AspNetCore.Authorization/1.1.0": {
      "type": "package",
      "serviceable": true,
      "sha512": "sha512-dqveE6pqsnzkab2vw+aFExFYeCikF/T+GKZW9ki8dwJuN7M2+jJcgWtYAv83q7NjBARVh2xH8xf0ahzeuXL/WQ=="
    },
    "Microsoft.AspNetCore.Cors/1.1.0": {
      "type": "package",
      "serviceable": true,
      "sha512": "sha512-GtBPVpgjHIO8R+0xXyh9BHTYq4+XKpwfuy9Uo2Iza4mYzfQI06CsJh5p+qkjIxQzroIXN5XNGNnVS9dURR0zBA=="
    },
    "Microsoft.AspNetCore.Cryptography.Internal/1.1.0": {
      "type": "package",
      "serviceable": true,
      "sha512": "sha512-Oy0pgxQkusvQwIrwbHvGVZhwk59qRVKxcer6HsWw0jCEq2LoQ7mj7x7DovE5ub8UvffLYWx77NMF5uwPtkl8KA=="
    },
    "Microsoft.AspNetCore.Cryptography.KeyDerivation/1.1.0": {
      "type": "package",
      "serviceable": true,
      "sha512": "sha512-cVlVvsH4/9G6AjrlXVO6unCzuFHnDCGRhPJNufOCclxpwImZUdhi+EIh09gSaCJ55gme2/Vn0ycig0cF9gKcbg=="
    },
    "Microsoft.AspNetCore.DataProtection/1.1.0": {
      "type": "package",
      "serviceable": true,
      "sha512": "sha512-wu8pk94CExaLvwwDSnXkTtsdL8mRxbLH8uCKbbPqbtIstSM6bOw/454OvOYKf61BB+It//ItJJYdZTy2j8Kelw=="
    },
    "Microsoft.AspNetCore.DataProtection.Abstractions/1.1.0": {
      "type": "package",
      "serviceable": true,
      "sha512": "sha512-WW6qKPh9A5lNh/bFlXIMttlbLmm2K0O3kyZuFIlL4ShOMyhrJeCHoWPWQ+S5eUBdcuOnd9sPwhlmI5Nvb3NjMA=="
    },
    "Microsoft.AspNetCore.Diagnostics.Abstractions/1.1.0": {
      "type": "package",
      "serviceable": true,
      "sha512": "sha512-OTLXdoqnhxGzjBewpKiil8C8RzaLMCiWjGDIkr/5kdTNhD0LGT1Dobqprqbg9nKpS99ykJisOguFDTtxpoeSFg=="
    },
    "Microsoft.AspNetCore.Hosting/1.1.0": {
      "type": "package",
      "serviceable": true,
      "sha512": "sha512-yNiCwtCi1mYfTjLyHWQt4A3QRd84ok8XxuTP4wSnr6aT3bIzI7upstGe7diaEDirmku10qnISC/8CsMTG4xd4w=="
    },
    "Microsoft.AspNetCore.Hosting.Abstractions/1.1.0": {
      "type": "package",
      "serviceable": true,
      "sha512": "sha512-bi3l+bdJLrkhtNXk/988mWCRHr9dlRpDkaQof6aFjni/oJfPOHpu2B2+cH+gCemaWHTipzSYoCOuz0UL+AxG2g=="
    },
    "Microsoft.AspNetCore.Hosting.Server.Abstractions/1.1.0": {
      "type": "package",
      "serviceable": true,
      "sha512": "sha512-GynDm8oz39EA8WvLIkfitPwHU27IVhLoVocZKaEYQ6Cs+jZnW2PT3OKBKJeeEepvMMbS5grvKM7HeZyGZqPthg=="
    },
    "Microsoft.AspNetCore.Html.Abstractions/1.1.0": {
      "type": "package",
      "serviceable": true,
      "sha512": "sha512-+zN+RCEAJwzeFfsGIRkNn7NQ0/hrLEKHeKQNegqMRTr42JhuJZfPE+Negz7W/WkgFB3ZQQd9QTth9I3BDlsHzQ=="
    },
    "Microsoft.AspNetCore.Http/1.1.0": {
      "type": "package",
      "serviceable": true,
      "sha512": "sha512-N5ejgXmkUH/CQA+lz18HQb9cDZdA365Tm128yYyP34N46uiR9NswEDravug2DXrRiTo+2hOwPT1Tvby3Cdf6lQ=="
    },
    "Microsoft.AspNetCore.Http.Abstractions/1.1.0": {
      "type": "package",
      "serviceable": true,
      "sha512": "sha512-D5ytRM662nwczIVUPm2mvEJ8nf0UlHSxO6yPlXGpbdwilGchK6MrwiHI6XEfCfryhoXBn6q97fsu5K8el3uGCA=="
    },
    "Microsoft.AspNetCore.Http.Extensions/1.1.0": {
      "type": "package",
      "serviceable": true,
      "sha512": "sha512-ZR2CbLAqwjGMFRhg0GlyrsIPA2lT1o2AHniryplFYOjyDi7rG9a9JwPiCmXsnu+22nK9+ca7mxNPx8eWSy/NQw=="
    },
    "Microsoft.AspNetCore.Http.Features/1.1.0": {
      "type": "package",
      "serviceable": true,
      "sha512": "sha512-zH5Qi6uJaojL+aQ/5QIt7MJ1I4Zimwc1ti6+luEHthc1xq6nevChup0lYCcthh47lrRAJwybqEg6g+c+TG3MyQ=="
    },
    "Microsoft.AspNetCore.JsonPatch/1.1.0": {
      "type": "package",
      "serviceable": true,
      "sha512": "sha512-/mADp5Q1I3oeptoCF8mmAFDMGvlDCLSBatsKCXxk5vQYZUyzOLxoiHgW5QowgIdwnd3AHPmFDib5vm8U2B6q7g=="
    },
    "Microsoft.AspNetCore.Localization/1.1.0": {
      "type": "package",
      "serviceable": true,
      "sha512": "sha512-Px52xLst9/G4dyGt3fSTIZU3aZoz0IOVoInW/M1WRCOM5DzCkLzPYXOHMpQkc8ZVx7YZmHnB8p9IrvNNyjPO6A=="
    },
    "Microsoft.AspNetCore.Mvc/1.1.1": {
      "type": "package",
      "serviceable": true,
      "sha512": "sha512-W9Z0f4xwcBuVukG6MuKgaZOeK56VH3Gc/11dQeRXXzKHpU7fqRokPusTpwjnuTK36TDqqQTW0jC+yo9uZaRszg=="
    },
    "Microsoft.AspNetCore.Mvc.Abstractions/1.1.1": {
      "type": "package",
      "serviceable": true,
      "sha512": "sha512-oXYnarlPEcpGA0hwaqsUIqNuoOntWl/jS0QT489ypL+WWYa2QsH1aDP+qnLWoybArZLCpYswrLTKia5hWpViog=="
    },
    "Microsoft.AspNetCore.Mvc.ApiExplorer/1.1.1": {
      "type": "package",
      "serviceable": true,
      "sha512": "sha512-mBLSRRvEyPrqfbYWR8e8CvbVLLey5KyMcKZ7UOJTwcgMIGP7h3qc3jKGw6RJxtoN67lCZifYlq5wWrSgaHgGoQ=="
    },
    "Microsoft.AspNetCore.Mvc.Core/1.1.1": {
      "type": "package",
      "serviceable": true,
      "sha512": "sha512-iderNqoLhYGWiSmdkw0qXZp6gxWxIcOJJCYXNVjM4xBYzFdeQ4QQUStoUZSAEpC1a760jU5VR8bbP8mZe9KJXA=="
    },
    "Microsoft.AspNetCore.Mvc.Cors/1.1.1": {
      "type": "package",
      "serviceable": true,
      "sha512": "sha512-DI2jzqZOUrWxdv7zgyEQx/AF+wkiCtJbPvdlGoL6psbDNUOcb+6ZQCqc645IPFsJZwGA3LZMv0tW8QWRkuKsKg=="
    },
    "Microsoft.AspNetCore.Mvc.DataAnnotations/1.1.1": {
      "type": "package",
      "serviceable": true,
      "sha512": "sha512-43uxmSalS2TuFBjHvj6+r0hQfPqRZphiePg05wlVdwp1smXpPL1Jw+WnnhqfR7LTXCzQrY6uzPdYXWgDNWC2rw=="
    },
    "Microsoft.AspNetCore.Mvc.Formatters.Json/1.1.1": {
      "type": "package",
      "serviceable": true,
      "sha512": "sha512-ufdjlIi2B7mPZWmQ/1+Y5z9IMkdtAZuJMXaOoYMYtqiGYGjDcF4o4S1jrDjkhEMlm6xny7KggyPndgCv8sj5mw=="
    },
    "Microsoft.AspNetCore.Mvc.Localization/1.1.1": {
      "type": "package",
      "serviceable": true,
      "sha512": "sha512-9lNZxG74K0Vu35LXoEPHWhHL8/LPrcdaDgqSjjVkGU7EoXAP8l9gpncTisvRtnNNYiSZPDfgWIGHCQB4fD0vVw=="
    },
    "Microsoft.AspNetCore.Mvc.Razor/1.1.1": {
      "type": "package",
      "serviceable": true,
      "sha512": "sha512-oSHYQc4fPfAp9W6UE9Uzcb/judMOEpTn0QHyY+ox8j3QgDIAXnHroIkN0HTsc7JhsWLx1lAcVLN8ryuPRc7ZdQ=="
    },
    "Microsoft.AspNetCore.Mvc.Razor.Host/1.1.1": {
      "type": "package",
      "serviceable": true,
      "sha512": "sha512-a2gc+lAa7ObfT/tvwINl/FKHLPVr97Rh+mdRxF9T6Ja4Dwm4zXNWQBHuRAneVckIl++7XvJ7fS4BVxa5vvhCWw=="
    },
    "Microsoft.AspNetCore.Mvc.TagHelpers/1.1.1": {
      "type": "package",
      "serviceable": true,
      "sha512": "sha512-rgcJYPQJDWpM/Zpkciv3vQhlujwg/6T68paYh4kE+AmPXrct5uLsrknpLSOiW3FWRiNbF84GjqCHmNWJPcN9jw=="
    },
    "Microsoft.AspNetCore.Mvc.ViewFeatures/1.1.1": {
      "type": "package",
      "serviceable": true,
      "sha512": "sha512-r/X3IDRrPdM51rOiHT38Gz0eRqLcIeLBxZdi4YjoyoFO99NywbJZyRhP9IQcyQdn0hdmGrEQgpiLiUn+8cr/lg=="
    },
    "Microsoft.AspNetCore.Razor/1.1.0": {
      "type": "package",
      "serviceable": true,
      "sha512": "sha512-hChh+W6UG0C8aink3KWuX7flFuAiTPrCBfh68fbRJ1sLPk0ELmj6c3zm+VgNXaHEh2OpT/O0eN5XpS1rQ/FcbQ=="
    },
    "Microsoft.AspNetCore.Razor.Runtime/1.1.0": {
      "type": "package",
      "serviceable": true,
      "sha512": "sha512-hQW8+DRFHCHmTzviW54umnBfX1vc9bv/390r62k85LQsUd5Lo59QQ+IyD5fe6o9g/h946IF8Yl25wd6dEk7YqA=="
    },
    "Microsoft.AspNetCore.ResponseCaching.Abstractions/1.1.0": {
      "type": "package",
      "serviceable": true,
      "sha512": "sha512-Mdj0FP6fP44sYaSRmhUBEpOXnN3kykpd0/8e48iEoSybId5x5XreIeDEEhTYF+r/QA7H8Y33fjVR1cP996OgDA=="
    },
    "Microsoft.AspNetCore.Routing/1.1.0": {
      "type": "package",
      "serviceable": true,
      "sha512": "sha512-wrD6DOWc4/euIujz7trLrF3zGVMxOGKRPzYl4e2NFOE/uXz95EnNBHkNuN0Xcgx3xVcb08TMxkoFNT3A+WC0XA=="
    },
    "Microsoft.AspNetCore.Routing.Abstractions/1.1.0": {
      "type": "package",
      "serviceable": true,
      "sha512": "sha512-/kaFZW4AjHPOIMnqXHGl/KdHxUGOVm9z/U0t3JtKmK5OFnsfuLsUIH2QN2PtXNeOm1eh5Ux2XEyg6YRBgXfPgA=="
    },
    "Microsoft.AspNetCore.Server.Kestrel/1.1.0": {
      "type": "package",
      "serviceable": true,
      "sha512": "sha512-PbVYQUVxOwtrl9YCnw8ykXSufELVeEuASYahVh1F7B4LYVtcqwyV5+FhXlJkboGM4ozKMrdhB5w/tlLLcmHxNA=="
    },
    "Microsoft.AspNetCore.WebUtilities/1.1.0": {
      "type": "package",
      "serviceable": true,
      "sha512": "sha512-9w3aHPRUAx+1xOTcsZF6AJCS42viNqWeTcgIE1dmlK/G3NCFkes+MVxwvKt9U9pFIomxqRnD+MGRoBeruEKPbQ=="
    },
    "Microsoft.DotNet.PlatformAbstractions/1.1.0": {
      "type": "package",
      "serviceable": true,
      "sha512": "sha512-Bl6KYfbFSIW3QIRHAp931iR5h01qHjKghdpAtncwbzNUs0+IUZ+XfwkIU0sQsR33ufGvi3u4dZMIYYFysjpHAA=="
    },
    "Microsoft.Extensions.Caching.Abstractions/1.1.0": {
      "type": "package",
      "serviceable": true,
      "sha512": "sha512-uMbUDz/lNoO9LGc+DSjKMLWJk+y4qX6syDRcmQC0w6LSQzizkRqmo5Y8jO0ePtZRjF2lSGgO5URt4YgB6STDBQ=="
    },
    "Microsoft.Extensions.Caching.Memory/1.1.0": {
      "type": "package",
      "serviceable": true,
      "sha512": "sha512-ihFzFRKf/LrXHIvn0wDDt6oLxaAjsCPfrIzV9CLrTURD7qT+HujJ0TaRfC91e6tB8OAgkzY4AsHRBNq8KzrQQQ=="
    },
    "Microsoft.Extensions.Configuration/1.1.0": {
      "type": "package",
      "serviceable": true,
      "sha512": "sha512-iqp8UepCsS902j0kPO/d7hrd9PSyK7l84UFlpqdV8QY+/pMUY5k8wlAIuN6mWdW97HI8a8BJyvjhJbJps2GwZw=="
    },
    "Microsoft.Extensions.Configuration.Abstractions/1.1.0": {
      "type": "package",
      "serviceable": true,
      "sha512": "sha512-ggfk85eY5+Nr90O9wN0ei8YyouHTeLOSj4R7PJAEkAAR1TNCoeErydX2OuFjT/lF6o7Zupwd+DIRifC17XL2VA=="
    },
    "Microsoft.Extensions.Configuration.Binder/1.1.0": {
      "type": "package",
      "serviceable": true,
      "sha512": "sha512-1dTFEL493MfC5O7MNaElQBhX4txb9ivSmTMwB3qDqEJHXnnUdgThTChn32FjhLIA6Fn7YXjqkZzAB/LdZEKupw=="
    },
    "Microsoft.Extensions.Configuration.EnvironmentVariables/1.1.0": {
      "type": "package",
      "serviceable": true,
      "sha512": "sha512-7AWmPQoX4Kx0Kf4VAig5yKbCziHjO6F2povXeToOaWuZnKahi5qXCG7wrWtATFrheOQLfkrqxxLyarTP3J1mnA=="
    },
    "Microsoft.Extensions.Configuration.FileExtensions/1.1.0": {
      "type": "package",
      "serviceable": true,
      "sha512": "sha512-jZRdMHops4npC8qKFEmqw6QODfA5h50sUYBIyB31DICzYSp+IQyvf5yb1zwW2x1EFuUEMv+aWZi1WDDc7JPdqA=="
    },
    "Microsoft.Extensions.Configuration.Json/1.1.0": {
      "type": "package",
      "serviceable": true,
      "sha512": "sha512-QmHQbrOoVxXblM2x9NzGPbX3XpQGTCXiO6jZghx4KqUxPfJMS0VgBlgOUnLAz7sJyx3GvhUG6SEX6Xz70dpwDw=="
    },
    "Microsoft.Extensions.DependencyInjection/1.1.0": {
      "type": "package",
      "serviceable": true,
      "sha512": "sha512-meG2tsLdHT0SROqxGBiY8A6XUKlwsQVj1N9cyrS+ZJd1MKhoSaw54KuSH6PmpCB/K/ifkR7o9yVVVamu9XZyeg=="
    },
    "Microsoft.Extensions.DependencyInjection.Abstractions/1.1.0": {
      "type": "package",
      "serviceable": true,
      "sha512": "sha512-2luhjVaWZd8Wmr2KUJcLNAN+iZgezTyfamLG6Lo5FVYY1LYaS7UFOmNtApHGVIytWWtuXSk4ea0t2Vx0HgF5fg=="
    },
    "Microsoft.Extensions.DependencyModel/1.1.0": {
      "type": "package",
      "serviceable": true,
      "sha512": "sha512-TG7dJ8GY1Myz9lZ8DJL4i6D05ncJQBi5CjBMXMdJ4edKxaW+vP2DndDd1jJabdMdmVRdGrvybzqkB+A6Df7eDw=="
    },
    "Microsoft.Extensions.FileProviders.Abstractions/1.1.0": {
      "type": "package",
      "serviceable": true,
      "sha512": "sha512-TBG5/xsMSOJ9hrit5TcM6Ipn+3/cgBs5tywXHun+L+8w1WYal13AMac2ziwPRY/PQqC4oG88Hw9hwIEj95xdGw=="
    },
    "Microsoft.Extensions.FileProviders.Composite/1.1.0": {
      "type": "package",
      "serviceable": true,
      "sha512": "sha512-S6vQ4HcjYKAmPqyuGNDQ1ILBaTx7SnDvfg/Dby+s55dXNI2WA/blkeIufbDm0MukALsukWya9mdbe7upWj8U5g=="
    },
    "Microsoft.Extensions.FileProviders.Physical/1.1.0": {
      "type": "package",
      "serviceable": true,
      "sha512": "sha512-ckyGwMGd4v1nE70wZ7ytax+Ef9WHQ6IcE4apLYG4um6Dfcw/Y6QJY0Fcv3Ck9WK/Uj0YMxHnNCZH6MBp6boeEw=="
    },
    "Microsoft.Extensions.FileSystemGlobbing/1.1.0": {
      "type": "package",
      "serviceable": true,
      "sha512": "sha512-/NKs5LrUCUARfFbGik/ML5L2YnN33XTf+TUyghjhCzl9HlvLA4l6s3bW+xsbCU0GEmI/MottEEhiDa1dLJJh4A=="
    },
    "Microsoft.Extensions.Globalization.CultureInfoCache/1.1.0": {
      "type": "package",
      "serviceable": true,
      "sha512": "sha512-KAuadrKH0hLZGXfLO/+L6bv4vIeOYpQTjglR5Tu4hm9TJ8sVcPf11qIoU+BXSwalXiaJuazSI9fxbyoIVBsX4A=="
    },
    "Microsoft.Extensions.Localization/1.1.0": {
      "type": "package",
      "serviceable": true,
      "sha512": "sha512-1DWqIC1k383XaQ3h+WxyKYmerLHDYH7TY7mDcglylG3Wq+zlX3/UUhUEKO0Ft8RKCLxLh/LhIa9NBvM3cYzLIg=="
    },
    "Microsoft.Extensions.Localization.Abstractions/1.1.0": {
      "type": "package",
      "serviceable": true,
      "sha512": "sha512-8KkP9veQupIfAEQFLLQFTo75s2fVKOM9SWeHhdSSUD35uD8DX1zOXAUsuaXwQY8cyt6mSUR5zuUEkgbZXnUKCA=="
    },
    "Microsoft.Extensions.Logging/1.1.0": {
      "type": "package",
      "serviceable": true,
      "sha512": "sha512-IbNogJJE3NRtc5/DAtKEkhXaUQK9N7I6A5G2+ZfyBzWMvAgLKSimESpNMp+gnzUYsW3YbHkeT8jLk9m/3vGY5A=="
    },
    "Microsoft.Extensions.Logging.Abstractions/1.1.0": {
      "type": "package",
      "serviceable": true,
      "sha512": "sha512-5zDtM0Dal+pwDIj49PPq9Y8SYu6z70v55VDx70rOuquLTlaCIdv9uItkcp9c1FH/ASNdfANVnh1cTwd85dyE+Q=="
    },
    "Microsoft.Extensions.Logging.Console/1.1.0": {
      "type": "package",
      "serviceable": true,
      "sha512": "sha512-MkFjLvtMdYN1g3NesmkeuQ56f/LuQS46PvjhbF1rUoH9L1ZM3/uteuTknVDUryeWlh18oh6ew7Xo9H50KWPAog=="
    },
    "Microsoft.Extensions.Logging.Debug/1.1.0": {
      "type": "package",
      "serviceable": true,
      "sha512": "sha512-6Kg1PyEbQjd37ZeWkrseJNvb99iUCdXRAjUqFd2zxW9ZCwjn9h+aSC2bMbyERvC+n6lImp053jqRBsotIrMiXw=="
    },
    "Microsoft.Extensions.ObjectPool/1.1.0": {
      "type": "package",
      "serviceable": true,
      "sha512": "sha512-8tg7DpFubtj98Lf+N+zpu5VXe9EHCPrqcukpsjC9BSfcnC0Oq8CUZKYUsLScS2pnqEkSNHwuHoWRtJ6xhMO/xg=="
    },
    "Microsoft.Extensions.Options/1.1.0": {
      "type": "package",
      "serviceable": true,
      "sha512": "sha512-NZlEcVm+SPPeNAkYuwiZdqnMrs/Lne/cDAWiBal1EL//m/KjDgOC6jKg5m9rt/cvqb7Obql5e0JtkNmdP1fGQA=="
    },
    "Microsoft.Extensions.Options.ConfigurationExtensions/1.1.0": {
      "type": "package",
      "serviceable": true,
      "sha512": "sha512-loehh0znbtZw+mqk2VY7VyJu7t7N2TvEjSpln0Twkli/rF26HcxWQ3rdSvSr66yOCt7Dnur6DcW6HWXfa2u/PA=="
    },
    "Microsoft.Extensions.PlatformAbstractions/1.1.0": {
      "type": "package",
      "serviceable": true,
      "sha512": "sha512-H6ZsQzxYw/6k2DfEQRXdC+vQ6obd6Uba3uGJrnJ2vG4PRXjQZ7seB13JdCfE72abp8E6Fk3gGgDzfJiLZi5ZpQ=="
    },
    "Microsoft.Extensions.Primitives/1.1.0": {
      "type": "package",
      "serviceable": true,
      "sha512": "sha512-GhQG5CBUR9/czBLTblt1giKBkfvHVDeppWd6KIgPyexrspECqzzSW5IXe0STTTs2NlUp9vIFwjSWG8O9c74R9g=="
    },
    "Microsoft.Extensions.WebEncoders/1.1.0": {
      "type": "package",
      "serviceable": true,
      "sha512": "sha512-YnUfcLe/FYL3Mft5HPv7dSSKfZZCZwLG2GQfv3vuxdY4AbWOYLqq/3wIPCNIrgMXvzralWdkESNsb9iw5gKdpg=="
    },
    "Microsoft.Net.Http.Headers/1.1.0": {
      "type": "package",
      "serviceable": true,
      "sha512": "sha512-jeVS60A5qfWNFxs1aZ8UmUclrN6r6AdXkHmNjO0HzyaDmzc0zm7h0F0A/FHSu2i9sj5E7KrxTwaHapeiFBw/DA=="
    },
    "MimeKit/1.10.1": {
      "type": "package",
      "serviceable": true,
      "sha512": "sha512-n5c0DKPQG8xx84Qafipd0+0Mw6iGKFUH4dUMDI37ahehVjqKy55YKmvBBwEcCkyjPrazcF/yaBIVRNN0iyr9NA=="
    },
    "Newtonsoft.Json/9.0.2-beta2": {
      "type": "package",
      "serviceable": true,
      "sha512": "sha512-g29gt1Ux5izsximmPpsNf0NAcO/Pl8FA0uRzTxINPINwXJ8+QjzdGLIa2gf0/tGNclxHj5QGek1/tu6Ghc9Gcg=="
    },
    "Npgsql/3.2.1": {
      "type": "package",
      "serviceable": true,
      "sha512": "sha512-wtqxI0GwFoeT+krtps0mcUM2TkEDT35VMatO0JEA5BzsP7cY4gWBuS1hwyskMBj8i7tBtCVXg/SjfOCTJpSdWw=="
    },
    "Portable.BouncyCastle/1.8.1.1": {
      "type": "package",
      "serviceable": true,
      "sha512": "sha512-rv/VIvOMhZaZ6iSyKeJiwrYWq4J05Td59VekLxmLD+nR0liHFLPtkUtPfJL2sMaVghy1PpF/HjSvvcoNZQtlGA=="
    },
    "StackExchange.Redis/1.2.0": {
      "type": "package",
      "serviceable": true,
      "sha512": "sha512-RXi3cs12LsEVZoPW2RnHEkiKoRw8aCivJUi4JFbW6ym6OaANkoJq/BRrorb3XBHsCMfoyOm3PGMuAGibll6FbA=="
    },
    "System.Collections.Immutable/1.3.1": {
      "type": "package",
      "serviceable": true,
      "sha512": "sha512-n+AGX7zmiZumW9aggOkXaHzUeAS3EfeTErnkKCusyONUozbTv+kMb8VE36m+ldV6kF9g57G2c641KCdgH9E0pg=="
    },
    "System.Collections.NonGeneric/4.3.0": {
      "type": "package",
      "serviceable": true,
      "sha512": "sha512-prtjIEMhGUnQq6RnPEYLpFt8AtLbp9yq2zxOSrY7KJJZrw25Fi97IzBqY7iqssbM61Ek5b8f3MG/sG1N2sN5KA=="
    },
    "System.Collections.Specialized/4.3.0": {
      "type": "package",
      "serviceable": true,
      "sha512": "sha512-Epx8PoVZR0iuOnJJDzp7pWvdfMMOAvpUo95pC4ScH2mJuXkKA2Y4aR3cG9qt2klHgSons1WFh4kcGW7cSXvrxg=="
    },
    "System.ComponentModel.Primitives/4.3.0": {
      "type": "package",
      "serviceable": true,
      "sha512": "sha512-j8GUkCpM8V4d4vhLIIoBLGey2Z5bCkMVNjEZseyAlm4n5arcsJOeI3zkUP+zvZgzsbLTYh4lYeP/ZD/gdIAPrw=="
    },
    "System.ComponentModel.TypeConverter/4.3.0": {
      "type": "package",
      "serviceable": true,
      "sha512": "sha512-16pQ6P+EdhcXzPiEK4kbA953Fu0MNG2ovxTZU81/qsCd1zPRsKc3uif5NgvllCY598k6bI0KUyKW8fanlfaDQg=="
    },
    "System.Data.Common/4.3.0": {
      "type": "package",
      "serviceable": true,
      "sha512": "sha512-lm6E3T5u7BOuEH0u18JpbJHxBfOJPuCyl4Kg1RH10ktYLp5uEEE1xKrHW56/We4SnZpGAuCc9N0MJpSDhTHZGQ=="
    },
    "System.Diagnostics.Contracts/4.3.0": {
      "type": "package",
      "serviceable": true,
      "sha512": "sha512-eelRRbnm+OloiQvp9CXS0ixjNQldjjkHO4iIkR5XH2VIP8sUB/SIpa1TdUW6/+HDcQ+MlhP3pNa1u5SbzYuWGA=="
    },
    "System.Diagnostics.StackTrace/4.3.0": {
      "type": "package",
      "serviceable": true,
      "sha512": "sha512-BiHg0vgtd35/DM9jvtaC1eKRpWZxr0gcQd643ABG7GnvSlf5pOkY2uyd42mMOJoOmKvnpNj0F4tuoS1pacTwYw=="
    },
    "System.Net.NetworkInformation/4.3.0": {
      "type": "package",
      "serviceable": true,
      "sha512": "sha512-zNVmWVry0pAu7lcrRBhwwU96WUdbsrGL3azyzsbXmVNptae1+Za+UgOe9Z6s8iaWhPn7/l4wQqhC56HZWq7tkg=="
    },
    "System.Net.WebSockets/4.3.0": {
      "type": "package",
      "serviceable": true,
      "sha512": "sha512-u6fFNY5q4T8KerUAVbya7bR6b7muBuSTAersyrihkcmE5QhEOiH3t5rh4il15SexbVlpXFHGuMwr/m8fDrnkQg=="
    },
    "System.Reflection.Context/4.3.0": {
      "type": "package",
      "serviceable": true,
      "sha512": "sha512-PcPbFhnAsIhh5vTE0DQmMlZofHZsYEyK7cyuhxMEfJPaGOvUFKvzkDiSts/YmcoucKjQn14eCeZlzPqoUkykvQ=="
    },
    "System.Reflection.Metadata/1.4.2": {
      "type": "package",
      "serviceable": true,
      "sha512": "sha512-KYPNMDrLB2R+G5JJiJ2fjBpihtktKVIjsirmyyv+VDo5rQkIR9BWeCYM1wDSzbQatWNZ/NQfPsQyTB1Ui3qBfQ=="
    },
    "System.Runtime.CompilerServices.Unsafe/4.3.0": {
      "type": "package",
      "serviceable": true,
      "sha512": "sha512-rcnXA1U9W3QUtMSGoyoNHH6w4V5Rxa/EKXmzpORUYlDAlDB34hIQoU57ATXl8xHa83VvzRm6PcElEizgUd7U5w=="
    },
    "System.Runtime.Serialization.Primitives/4.3.0": {
      "type": "package",
      "serviceable": true,
      "sha512": "sha512-Wz+0KOukJGAlXjtKr+5Xpuxf8+c8739RI1C+A2BoQZT+wMCCoMDDdO8/4IRHfaVINqL78GO8dW8G2lW/e45Mcw=="
    },
    "System.Text.Encodings.Web/4.3.0": {
      "type": "package",
      "serviceable": true,
      "sha512": "sha512-ilLTKoirqw+Mbt+6x1MOxZKEwflasdP5WNuo5m5rKSXtAqazlEDqdyBH1XbvENuDQUtKNeP48CI1dyDNlEAeOA=="
    },
    "Deviax.QueryBuilder.Postgres/0.2.2": {
      "type": "project",
      "serviceable": false,
      "sha512": ""
    },
    "MaterialOrder.Shared/1.0.0": {
      "type": "project",
      "serviceable": false,
      "sha512": ""
    },
    "MaterialOrder.Web.Shared/1.0.0": {
      "type": "project",
      "serviceable": false,
      "sha512": ""
    }
  }
}